Version 300
Charset "WindowsLatin1"
Delimiter ","
CoordSys NonEarth Units "m" Bounds (6462500.5, 1773661.625) (6474300.5, 1778386.625)
Columns 5
  n Integer
  m Integer
  Type Char(1)
  Elevation Float
  Domain_Index Integer
Data

Point         5.000000        5.000000
    Symbol (33,16711935,5)
Point        15.000000        5.000000
    Symbol (33,16711935,5)
Point        25.000000        5.000000
    Symbol (33,16711935,5)
Point        35.000000        5.000000
    Symbol (33,16711935,5)
Point        45.000000        5.000000
    Symbol (33,16711935,5)
Point        55.000000        5.000000
    Symbol (33,16711935,5)
Point        65.000000        5.000000
    Symbol (33,16711935,5)
Point        75.000000        5.000000
    Symbol (33,16711935,5)
Point        85.000000        5.000000
    Symbol (33,16711935,5)
Point        95.000000        5.000000
    Symbol (33,16711935,5)
Point         5.000000       15.000000
    Symbol (33,16711935,5)
Point        15.000000       15.000000
    Symbol (33,16711935,5)
Point        25.000000       15.000000
    Symbol (33,16711935,5)
Point        35.000000       15.000000
    Symbol (33,16711935,5)
Point        45.000000       15.000000
    Symbol (33,16711935,5)
Point        55.000000       15.000000
    Symbol (33,16711935,5)
Point        65.000000       15.000000
    Symbol (33,16711935,5)
Point        75.000000       15.000000
    Symbol (33,16711935,5)
Point        85.000000       15.000000
    Symbol (33,16711935,5)
Point        95.000000       15.000000
    Symbol (33,16711935,5)
Point         5.000000       25.000000
    Symbol (33,16711935,5)
Point        15.000000       25.000000
    Symbol (33,16711935,5)
Point        25.000000       25.000000
    Symbol (33,16711935,5)
Point        35.000000       25.000000
    Symbol (33,16711935,5)
Point        45.000000       25.000000
    Symbol (33,16711935,5)
Point        55.000000       25.000000
    Symbol (33,16711935,5)
Point        65.000000       25.000000
    Symbol (33,16711935,5)
Point        75.000000       25.000000
    Symbol (33,16711935,5)
Point        85.000000       25.000000
    Symbol (33,16711935,5)
Point        95.000000       25.000000
    Symbol (33,16711935,5)
Point         5.000000       35.000000
    Symbol (33,16711935,5)
Point        15.000000       35.000000
    Symbol (33,16711935,5)
Point        25.000000       35.000000
    Symbol (33,16711935,5)
Point        35.000000       35.000000
    Symbol (33,16711935,5)
Point        45.000000       35.000000
    Symbol (33,16711935,5)
Point        55.000000       35.000000
    Symbol (33,16711935,5)
Point        65.000000       35.000000
    Symbol (33,16711935,5)
Point        75.000000       35.000000
    Symbol (33,16711935,5)
Point        85.000000       35.000000
    Symbol (33,16711935,5)
Point        95.000000       35.000000
    Symbol (33,16711935,5)
Point         5.000000       45.000000
    Symbol (33,16711935,5)
Point        15.000000       45.000000
    Symbol (33,16711935,5)
Point        25.000000       45.000000
    Symbol (33,16711935,5)
Point        35.000000       45.000000
    Symbol (33,16711935,5)
Point        45.000000       45.000000
    Symbol (33,16711935,5)
Point        55.000000       45.000000
    Symbol (33,16711935,5)
Point        65.000000       45.000000
    Symbol (33,16711935,5)
Point        75.000000       45.000000
    Symbol (33,16711935,5)
Point        85.000000       45.000000
    Symbol (33,16711935,5)
Point        95.000000       45.000000
    Symbol (33,16711935,5)
Point         5.000000       55.000000
    Symbol (33,16711935,5)
Point        15.000000       55.000000
    Symbol (33,16711935,5)
Point        25.000000       55.000000
    Symbol (33,16711935,5)
Point        35.000000       55.000000
    Symbol (33,16711935,5)
Point        45.000000       55.000000
    Symbol (33,16711935,5)
Point        55.000000       55.000000
    Symbol (33,16711935,5)
Point        65.000000       55.000000
    Symbol (33,16711935,5)
Point        75.000000       55.000000
    Symbol (33,16711935,5)
Point        85.000000       55.000000
    Symbol (33,16711935,5)
Point        95.000000       55.000000
    Symbol (33,16711935,5)
Point         5.000000       65.000000
    Symbol (33,16711935,5)
Point        15.000000       65.000000
    Symbol (33,16711935,5)
Point        25.000000       65.000000
    Symbol (33,16711935,5)
Point        35.000000       65.000000
    Symbol (33,16711935,5)
Point        45.000000       65.000000
    Symbol (33,16711935,5)
Point        55.000000       65.000000
    Symbol (33,16711935,5)
Point        65.000000       65.000000
    Symbol (33,16711935,5)
Point        75.000000       65.000000
    Symbol (33,16711935,5)
Point        85.000000       65.000000
    Symbol (33,16711935,5)
Point        95.000000       65.000000
    Symbol (33,16711935,5)
Point         5.000000       75.000000
    Symbol (33,16711935,5)
Point        15.000000       75.000000
    Symbol (33,16711935,5)
Point        25.000000       75.000000
    Symbol (33,16711935,5)
Point        35.000000       75.000000
    Symbol (33,16711935,5)
Point        45.000000       75.000000
    Symbol (33,16711935,5)
Point        55.000000       75.000000
    Symbol (33,16711935,5)
Point        65.000000       75.000000
    Symbol (33,16711935,5)
Point        75.000000       75.000000
    Symbol (33,16711935,5)
Point        85.000000       75.000000
    Symbol (33,16711935,5)
Point        95.000000       75.000000
    Symbol (33,16711935,5)
Point         5.000000       85.000000
    Symbol (33,16711935,5)
Point        15.000000       85.000000
    Symbol (33,16711935,5)
Point        25.000000       85.000000
    Symbol (33,16711935,5)
Point        35.000000       85.000000
    Symbol (33,16711935,5)
Point        45.000000       85.000000
    Symbol (33,16711935,5)
Point        55.000000       85.000000
    Symbol (33,16711935,5)
Point        65.000000       85.000000
    Symbol (33,16711935,5)
Point        75.000000       85.000000
    Symbol (33,16711935,5)
Point        85.000000       85.000000
    Symbol (33,16711935,5)
Point        95.000000       85.000000
    Symbol (33,16711935,5)
Point         5.000000       95.000000
    Symbol (33,16711935,5)
Point        15.000000       95.000000
    Symbol (33,16711935,5)
Point        25.000000       95.000000
    Symbol (33,16711935,5)
Point        35.000000       95.000000
    Symbol (33,16711935,5)
Point        45.000000       95.000000
    Symbol (33,16711935,5)
Point        55.000000       95.000000
    Symbol (33,16711935,5)
Point        65.000000       95.000000
    Symbol (33,16711935,5)
Point        75.000000       95.000000
    Symbol (33,16711935,5)
Point        85.000000       95.000000
    Symbol (33,16711935,5)
Point        95.000000       95.000000
    Symbol (33,16711935,5)
Point         0.000000        5.000000
    Symbol (32,65535,5)
Point        10.000000        5.000000
    Symbol (32,65535,5)
Point        20.000000        5.000000
    Symbol (32,65535,5)
Point        30.000000        5.000000
    Symbol (32,65535,5)
Point        40.000000        5.000000
    Symbol (32,65535,5)
Point        50.000000        5.000000
    Symbol (32,65535,5)
Point        60.000000        5.000000
    Symbol (32,65535,5)
Point        70.000000        5.000000
    Symbol (32,65535,5)
Point        80.000000        5.000000
    Symbol (32,65535,5)
Point        90.000000        5.000000
    Symbol (32,65535,5)
Point       100.000000        5.000000
    Symbol (32,65535,5)
Point         0.000000       15.000000
    Symbol (32,65535,5)
Point        10.000000       15.000000
    Symbol (32,65535,5)
Point        20.000000       15.000000
    Symbol (32,65535,5)
Point        30.000000       15.000000
    Symbol (32,65535,5)
Point        40.000000       15.000000
    Symbol (32,65535,5)
Point        50.000000       15.000000
    Symbol (32,65535,5)
Point        60.000000       15.000000
    Symbol (32,65535,5)
Point        70.000000       15.000000
    Symbol (32,65535,5)
Point        80.000000       15.000000
    Symbol (32,65535,5)
Point        90.000000       15.000000
    Symbol (32,65535,5)
Point       100.000000       15.000000
    Symbol (32,65535,5)
Point         0.000000       25.000000
    Symbol (32,65535,5)
Point        10.000000       25.000000
    Symbol (32,65535,5)
Point        20.000000       25.000000
    Symbol (32,65535,5)
Point        30.000000       25.000000
    Symbol (32,65535,5)
Point        40.000000       25.000000
    Symbol (32,65535,5)
Point        50.000000       25.000000
    Symbol (32,65535,5)
Point        60.000000       25.000000
    Symbol (32,65535,5)
Point        70.000000       25.000000
    Symbol (32,65535,5)
Point        80.000000       25.000000
    Symbol (32,65535,5)
Point        90.000000       25.000000
    Symbol (32,65535,5)
Point       100.000000       25.000000
    Symbol (32,65535,5)
Point         0.000000       35.000000
    Symbol (32,65535,5)
Point        10.000000       35.000000
    Symbol (32,65535,5)
Point        20.000000       35.000000
    Symbol (32,65535,5)
Point        30.000000       35.000000
    Symbol (32,65535,5)
Point        40.000000       35.000000
    Symbol (32,65535,5)
Point        50.000000       35.000000
    Symbol (32,65535,5)
Point        60.000000       35.000000
    Symbol (32,65535,5)
Point        70.000000       35.000000
    Symbol (32,65535,5)
Point        80.000000       35.000000
    Symbol (32,65535,5)
Point        90.000000       35.000000
    Symbol (32,65535,5)
Point       100.000000       35.000000
    Symbol (32,65535,5)
Point         0.000000       45.000000
    Symbol (32,65535,5)
Point        10.000000       45.000000
    Symbol (32,65535,5)
Point        20.000000       45.000000
    Symbol (32,65535,5)
Point        30.000000       45.000000
    Symbol (32,65535,5)
Point        40.000000       45.000000
    Symbol (32,65535,5)
Point        50.000000       45.000000
    Symbol (32,65535,5)
Point        60.000000       45.000000
    Symbol (32,65535,5)
Point        70.000000       45.000000
    Symbol (32,65535,5)
Point        80.000000       45.000000
    Symbol (32,65535,5)
Point        90.000000       45.000000
    Symbol (32,65535,5)
Point       100.000000       45.000000
    Symbol (32,65535,5)
Point         0.000000       55.000000
    Symbol (32,65535,5)
Point        10.000000       55.000000
    Symbol (32,65535,5)
Point        20.000000       55.000000
    Symbol (32,65535,5)
Point        30.000000       55.000000
    Symbol (32,65535,5)
Point        40.000000       55.000000
    Symbol (32,65535,5)
Point        50.000000       55.000000
    Symbol (32,65535,5)
Point        60.000000       55.000000
    Symbol (32,65535,5)
Point        70.000000       55.000000
    Symbol (32,65535,5)
Point        80.000000       55.000000
    Symbol (32,65535,5)
Point        90.000000       55.000000
    Symbol (32,65535,5)
Point       100.000000       55.000000
    Symbol (32,65535,5)
Point         0.000000       65.000000
    Symbol (32,65535,5)
Point        10.000000       65.000000
    Symbol (32,65535,5)
Point        20.000000       65.000000
    Symbol (32,65535,5)
Point        30.000000       65.000000
    Symbol (32,65535,5)
Point        40.000000       65.000000
    Symbol (32,65535,5)
Point        50.000000       65.000000
    Symbol (32,65535,5)
Point        60.000000       65.000000
    Symbol (32,65535,5)
Point        70.000000       65.000000
    Symbol (32,65535,5)
Point        80.000000       65.000000
    Symbol (32,65535,5)
Point        90.000000       65.000000
    Symbol (32,65535,5)
Point       100.000000       65.000000
    Symbol (32,65535,5)
Point         0.000000       75.000000
    Symbol (32,65535,5)
Point        10.000000       75.000000
    Symbol (32,65535,5)
Point        20.000000       75.000000
    Symbol (32,65535,5)
Point        30.000000       75.000000
    Symbol (32,65535,5)
Point        40.000000       75.000000
    Symbol (32,65535,5)
Point        50.000000       75.000000
    Symbol (32,65535,5)
Point        60.000000       75.000000
    Symbol (32,65535,5)
Point        70.000000       75.000000
    Symbol (32,65535,5)
Point        80.000000       75.000000
    Symbol (32,65535,5)
Point        90.000000       75.000000
    Symbol (32,65535,5)
Point       100.000000       75.000000
    Symbol (32,65535,5)
Point         0.000000       85.000000
    Symbol (32,65535,5)
Point        10.000000       85.000000
    Symbol (32,65535,5)
Point        20.000000       85.000000
    Symbol (32,65535,5)
Point        30.000000       85.000000
    Symbol (32,65535,5)
Point        40.000000       85.000000
    Symbol (32,65535,5)
Point        50.000000       85.000000
    Symbol (32,65535,5)
Point        60.000000       85.000000
    Symbol (32,65535,5)
Point        70.000000       85.000000
    Symbol (32,65535,5)
Point        80.000000       85.000000
    Symbol (32,65535,5)
Point        90.000000       85.000000
    Symbol (32,65535,5)
Point       100.000000       85.000000
    Symbol (32,65535,5)
Point         0.000000       95.000000
    Symbol (32,65535,5)
Point        10.000000       95.000000
    Symbol (32,65535,5)
Point        20.000000       95.000000
    Symbol (32,65535,5)
Point        30.000000       95.000000
    Symbol (32,65535,5)
Point        40.000000       95.000000
    Symbol (32,65535,5)
Point        50.000000       95.000000
    Symbol (32,65535,5)
Point        60.000000       95.000000
    Symbol (32,65535,5)
Point        70.000000       95.000000
    Symbol (32,65535,5)
Point        80.000000       95.000000
    Symbol (32,65535,5)
Point        90.000000       95.000000
    Symbol (32,65535,5)
Point       100.000000       95.000000
    Symbol (32,65535,5)
Point         5.000000        0.000000
    Symbol (32,16776960,4)
Point        15.000000        0.000000
    Symbol (32,16776960,4)
Point        25.000000        0.000000
    Symbol (32,16776960,4)
Point        35.000000        0.000000
    Symbol (32,16776960,4)
Point        45.000000        0.000000
    Symbol (32,16776960,4)
Point        55.000000        0.000000
    Symbol (32,16776960,4)
Point        65.000000        0.000000
    Symbol (32,16776960,4)
Point        75.000000        0.000000
    Symbol (32,16776960,4)
Point        85.000000        0.000000
    Symbol (32,16776960,4)
Point        95.000000        0.000000
    Symbol (32,16776960,4)
Point         5.000000       10.000000
    Symbol (32,16776960,4)
Point        15.000000       10.000000
    Symbol (32,16776960,4)
Point        25.000000       10.000000
    Symbol (32,16776960,4)
Point        35.000000       10.000000
    Symbol (32,16776960,4)
Point        45.000000       10.000000
    Symbol (32,16776960,4)
Point        55.000000       10.000000
    Symbol (32,16776960,4)
Point        65.000000       10.000000
    Symbol (32,16776960,4)
Point        75.000000       10.000000
    Symbol (32,16776960,4)
Point        85.000000       10.000000
    Symbol (32,16776960,4)
Point        95.000000       10.000000
    Symbol (32,16776960,4)
Point         5.000000       20.000000
    Symbol (32,16776960,4)
Point        15.000000       20.000000
    Symbol (32,16776960,4)
Point        25.000000       20.000000
    Symbol (32,16776960,4)
Point        35.000000       20.000000
    Symbol (32,16776960,4)
Point        45.000000       20.000000
    Symbol (32,16776960,4)
Point        55.000000       20.000000
    Symbol (32,16776960,4)
Point        65.000000       20.000000
    Symbol (32,16776960,4)
Point        75.000000       20.000000
    Symbol (32,16776960,4)
Point        85.000000       20.000000
    Symbol (32,16776960,4)
Point        95.000000       20.000000
    Symbol (32,16776960,4)
Point         5.000000       30.000000
    Symbol (32,16776960,4)
Point        15.000000       30.000000
    Symbol (32,16776960,4)
Point        25.000000       30.000000
    Symbol (32,16776960,4)
Point        35.000000       30.000000
    Symbol (32,16776960,4)
Point        45.000000       30.000000
    Symbol (32,16776960,4)
Point        55.000000       30.000000
    Symbol (32,16776960,4)
Point        65.000000       30.000000
    Symbol (32,16776960,4)
Point        75.000000       30.000000
    Symbol (32,16776960,4)
Point        85.000000       30.000000
    Symbol (32,16776960,4)
Point        95.000000       30.000000
    Symbol (32,16776960,4)
Point         5.000000       40.000000
    Symbol (32,16776960,4)
Point        15.000000       40.000000
    Symbol (32,16776960,4)
Point        25.000000       40.000000
    Symbol (32,16776960,4)
Point        35.000000       40.000000
    Symbol (32,16776960,4)
Point        45.000000       40.000000
    Symbol (32,16776960,4)
Point        55.000000       40.000000
    Symbol (32,16776960,4)
Point        65.000000       40.000000
    Symbol (32,16776960,4)
Point        75.000000       40.000000
    Symbol (32,16776960,4)
Point        85.000000       40.000000
    Symbol (32,16776960,4)
Point        95.000000       40.000000
    Symbol (32,16776960,4)
Point         5.000000       50.000000
    Symbol (32,16776960,4)
Point        15.000000       50.000000
    Symbol (32,16776960,4)
Point        25.000000       50.000000
    Symbol (32,16776960,4)
Point        35.000000       50.000000
    Symbol (32,16776960,4)
Point        45.000000       50.000000
    Symbol (32,16776960,4)
Point        55.000000       50.000000
    Symbol (32,16776960,4)
Point        65.000000       50.000000
    Symbol (32,16776960,4)
Point        75.000000       50.000000
    Symbol (32,16776960,4)
Point        85.000000       50.000000
    Symbol (32,16776960,4)
Point        95.000000       50.000000
    Symbol (32,16776960,4)
Point         5.000000       60.000000
    Symbol (32,16776960,4)
Point        15.000000       60.000000
    Symbol (32,16776960,4)
Point        25.000000       60.000000
    Symbol (32,16776960,4)
Point        35.000000       60.000000
    Symbol (32,16776960,4)
Point        45.000000       60.000000
    Symbol (32,16776960,4)
Point        55.000000       60.000000
    Symbol (32,16776960,4)
Point        65.000000       60.000000
    Symbol (32,16776960,4)
Point        75.000000       60.000000
    Symbol (32,16776960,4)
Point        85.000000       60.000000
    Symbol (32,16776960,4)
Point        95.000000       60.000000
    Symbol (32,16776960,4)
Point         5.000000       70.000000
    Symbol (32,16776960,4)
Point        15.000000       70.000000
    Symbol (32,16776960,4)
Point        25.000000       70.000000
    Symbol (32,16776960,4)
Point        35.000000       70.000000
    Symbol (32,16776960,4)
Point        45.000000       70.000000
    Symbol (32,16776960,4)
Point        55.000000       70.000000
    Symbol (32,16776960,4)
Point        65.000000       70.000000
    Symbol (32,16776960,4)
Point        75.000000       70.000000
    Symbol (32,16776960,4)
Point        85.000000       70.000000
    Symbol (32,16776960,4)
Point        95.000000       70.000000
    Symbol (32,16776960,4)
Point         5.000000       80.000000
    Symbol (32,16776960,4)
Point        15.000000       80.000000
    Symbol (32,16776960,4)
Point        25.000000       80.000000
    Symbol (32,16776960,4)
Point        35.000000       80.000000
    Symbol (32,16776960,4)
Point        45.000000       80.000000
    Symbol (32,16776960,4)
Point        55.000000       80.000000
    Symbol (32,16776960,4)
Point        65.000000       80.000000
    Symbol (32,16776960,4)
Point        75.000000       80.000000
    Symbol (32,16776960,4)
Point        85.000000       80.000000
    Symbol (32,16776960,4)
Point        95.000000       80.000000
    Symbol (32,16776960,4)
Point         5.000000       90.000000
    Symbol (32,16776960,4)
Point        15.000000       90.000000
    Symbol (32,16776960,4)
Point        25.000000       90.000000
    Symbol (32,16776960,4)
Point        35.000000       90.000000
    Symbol (32,16776960,4)
Point        45.000000       90.000000
    Symbol (32,16776960,4)
Point        55.000000       90.000000
    Symbol (32,16776960,4)
Point        65.000000       90.000000
    Symbol (32,16776960,4)
Point        75.000000       90.000000
    Symbol (32,16776960,4)
Point        85.000000       90.000000
    Symbol (32,16776960,4)
Point        95.000000       90.000000
    Symbol (32,16776960,4)
Point         5.000000      100.000000
    Symbol (32,16776960,4)
Point        15.000000      100.000000
    Symbol (32,16776960,4)
Point        25.000000      100.000000
    Symbol (32,16776960,4)
Point        35.000000      100.000000
    Symbol (32,16776960,4)
Point        45.000000      100.000000
    Symbol (32,16776960,4)
Point        55.000000      100.000000
    Symbol (32,16776960,4)
Point        65.000000      100.000000
    Symbol (32,16776960,4)
Point        75.000000      100.000000
    Symbol (32,16776960,4)
Point        85.000000      100.000000
    Symbol (32,16776960,4)
Point        95.000000      100.000000
    Symbol (32,16776960,4)
Point         0.000000        0.000000
    Symbol (34,65280,5)
Point        10.000000        0.000000
    Symbol (34,65280,5)
Point        20.000000        0.000000
    Symbol (34,65280,5)
Point        30.000000        0.000000
    Symbol (34,65280,5)
Point        40.000000        0.000000
    Symbol (34,65280,5)
Point        50.000000        0.000000
    Symbol (34,65280,5)
Point        60.000000        0.000000
    Symbol (34,65280,5)
Point        70.000000        0.000000
    Symbol (34,65280,5)
Point        80.000000        0.000000
    Symbol (34,65280,5)
Point        90.000000        0.000000
    Symbol (34,65280,5)
Point       100.000000        0.000000
    Symbol (34,65280,5)
Point         0.000000       10.000000
    Symbol (34,65280,5)
Point        10.000000       10.000000
    Symbol (34,65280,5)
Point        20.000000       10.000000
    Symbol (34,65280,5)
Point        30.000000       10.000000
    Symbol (34,65280,5)
Point        40.000000       10.000000
    Symbol (34,65280,5)
Point        50.000000       10.000000
    Symbol (34,65280,5)
Point        60.000000       10.000000
    Symbol (34,65280,5)
Point        70.000000       10.000000
    Symbol (34,65280,5)
Point        80.000000       10.000000
    Symbol (34,65280,5)
Point        90.000000       10.000000
    Symbol (34,65280,5)
Point       100.000000       10.000000
    Symbol (34,65280,5)
Point         0.000000       20.000000
    Symbol (34,65280,5)
Point        10.000000       20.000000
    Symbol (34,65280,5)
Point        20.000000       20.000000
    Symbol (34,65280,5)
Point        30.000000       20.000000
    Symbol (34,65280,5)
Point        40.000000       20.000000
    Symbol (34,65280,5)
Point        50.000000       20.000000
    Symbol (34,65280,5)
Point        60.000000       20.000000
    Symbol (34,65280,5)
Point        70.000000       20.000000
    Symbol (34,65280,5)
Point        80.000000       20.000000
    Symbol (34,65280,5)
Point        90.000000       20.000000
    Symbol (34,65280,5)
Point       100.000000       20.000000
    Symbol (34,65280,5)
Point         0.000000       30.000000
    Symbol (34,65280,5)
Point        10.000000       30.000000
    Symbol (34,65280,5)
Point        20.000000       30.000000
    Symbol (34,65280,5)
Point        30.000000       30.000000
    Symbol (34,65280,5)
Point        40.000000       30.000000
    Symbol (34,65280,5)
Point        50.000000       30.000000
    Symbol (34,65280,5)
Point        60.000000       30.000000
    Symbol (34,65280,5)
Point        70.000000       30.000000
    Symbol (34,65280,5)
Point        80.000000       30.000000
    Symbol (34,65280,5)
Point        90.000000       30.000000
    Symbol (34,65280,5)
Point       100.000000       30.000000
    Symbol (34,65280,5)
Point         0.000000       40.000000
    Symbol (34,65280,5)
Point        10.000000       40.000000
    Symbol (34,65280,5)
Point        20.000000       40.000000
    Symbol (34,65280,5)
Point        30.000000       40.000000
    Symbol (34,65280,5)
Point        40.000000       40.000000
    Symbol (34,65280,5)
Point        50.000000       40.000000
    Symbol (34,65280,5)
Point        60.000000       40.000000
    Symbol (34,65280,5)
Point        70.000000       40.000000
    Symbol (34,65280,5)
Point        80.000000       40.000000
    Symbol (34,65280,5)
Point        90.000000       40.000000
    Symbol (34,65280,5)
Point       100.000000       40.000000
    Symbol (34,65280,5)
Point         0.000000       50.000000
    Symbol (34,65280,5)
Point        10.000000       50.000000
    Symbol (34,65280,5)
Point        20.000000       50.000000
    Symbol (34,65280,5)
Point        30.000000       50.000000
    Symbol (34,65280,5)
Point        40.000000       50.000000
    Symbol (34,65280,5)
Point        50.000000       50.000000
    Symbol (34,65280,5)
Point        60.000000       50.000000
    Symbol (34,65280,5)
Point        70.000000       50.000000
    Symbol (34,65280,5)
Point        80.000000       50.000000
    Symbol (34,65280,5)
Point        90.000000       50.000000
    Symbol (34,65280,5)
Point       100.000000       50.000000
    Symbol (34,65280,5)
Point         0.000000       60.000000
    Symbol (34,65280,5)
Point        10.000000       60.000000
    Symbol (34,65280,5)
Point        20.000000       60.000000
    Symbol (34,65280,5)
Point        30.000000       60.000000
    Symbol (34,65280,5)
Point        40.000000       60.000000
    Symbol (34,65280,5)
Point        50.000000       60.000000
    Symbol (34,65280,5)
Point        60.000000       60.000000
    Symbol (34,65280,5)
Point        70.000000       60.000000
    Symbol (34,65280,5)
Point        80.000000       60.000000
    Symbol (34,65280,5)
Point        90.000000       60.000000
    Symbol (34,65280,5)
Point       100.000000       60.000000
    Symbol (34,65280,5)
Point         0.000000       70.000000
    Symbol (34,65280,5)
Point        10.000000       70.000000
    Symbol (34,65280,5)
Point        20.000000       70.000000
    Symbol (34,65280,5)
Point        30.000000       70.000000
    Symbol (34,65280,5)
Point        40.000000       70.000000
    Symbol (34,65280,5)
Point        50.000000       70.000000
    Symbol (34,65280,5)
Point        60.000000       70.000000
    Symbol (34,65280,5)
Point        70.000000       70.000000
    Symbol (34,65280,5)
Point        80.000000       70.000000
    Symbol (34,65280,5)
Point        90.000000       70.000000
    Symbol (34,65280,5)
Point       100.000000       70.000000
    Symbol (34,65280,5)
Point         0.000000       80.000000
    Symbol (34,65280,5)
Point        10.000000       80.000000
    Symbol (34,65280,5)
Point        20.000000       80.000000
    Symbol (34,65280,5)
Point        30.000000       80.000000
    Symbol (34,65280,5)
Point        40.000000       80.000000
    Symbol (34,65280,5)
Point        50.000000       80.000000
    Symbol (34,65280,5)
Point        60.000000       80.000000
    Symbol (34,65280,5)
Point        70.000000       80.000000
    Symbol (34,65280,5)
Point        80.000000       80.000000
    Symbol (34,65280,5)
Point        90.000000       80.000000
    Symbol (34,65280,5)
Point       100.000000       80.000000
    Symbol (34,65280,5)
Point         0.000000       90.000000
    Symbol (34,65280,5)
Point        10.000000       90.000000
    Symbol (34,65280,5)
Point        20.000000       90.000000
    Symbol (34,65280,5)
Point        30.000000       90.000000
    Symbol (34,65280,5)
Point        40.000000       90.000000
    Symbol (34,65280,5)
Point        50.000000       90.000000
    Symbol (34,65280,5)
Point        60.000000       90.000000
    Symbol (34,65280,5)
Point        70.000000       90.000000
    Symbol (34,65280,5)
Point        80.000000       90.000000
    Symbol (34,65280,5)
Point        90.000000       90.000000
    Symbol (34,65280,5)
Point       100.000000       90.000000
    Symbol (34,65280,5)
Point         0.000000      100.000000
    Symbol (34,65280,5)
Point        10.000000      100.000000
    Symbol (34,65280,5)
Point        20.000000      100.000000
    Symbol (34,65280,5)
Point        30.000000      100.000000
    Symbol (34,65280,5)
Point        40.000000      100.000000
    Symbol (34,65280,5)
Point        50.000000      100.000000
    Symbol (34,65280,5)
Point        60.000000      100.000000
    Symbol (34,65280,5)
Point        70.000000      100.000000
    Symbol (34,65280,5)
Point        80.000000      100.000000
    Symbol (34,65280,5)
Point        90.000000      100.000000
    Symbol (34,65280,5)
Point       100.000000      100.000000
    Symbol (34,65280,5)
