inflow_time_hr,inflow_FC01
0.000,0
0.083,0.84
0.167,3.31
0.250,4.6
0.333,7.03
0.417,12.39
0.500,22.63
0.583,58.02
0.667,78.22
0.750,87.68
0.833,91.13
0.917,92.24
1.000,91.78
1.083,89.3
1.167,81.91
1.250,73.66
1.333,62.57
1.417,51.03
1.500,41.16
1.583,32.4
1.667,28
1.750,22.63
1.833,20.6
1.917,18.93
2.000,17.72
2.083,15.64
2.167,12.76
2.250,11.95
2.333,10.68
2.417,9.87
2.500,8.66
2.583,7.39
2.667,6.58
2.750,5.37
2.833,4.05
2.917,2.89
3.000,2.18
3.083,1.96
3.167,1.77
3.250,1.6
3.333,1.45
